<svg width="20" height="20" viewBox="0 0 20 20" fill="none" xmlns="http://www.w3.org/2000/svg">
<path d="M15.6597 16.8397L10.8972 12.0764C8.77858 13.5826 5.85922 13.2141 4.18125 11.2288C2.50328 9.24345 2.62649 6.30352 4.46469 4.46553C6.30241 2.62673 9.24263 2.50299 11.2283 4.18087C13.2141 5.85875 13.5827 8.7784 12.0764 10.8972L16.8389 15.6605L15.6605 16.8389L15.6597 16.8397ZM7.99969 4.66718C6.41944 4.66683 5.0561 5.77609 4.73509 7.32339C4.41407 8.87069 5.22362 10.4308 6.67359 11.0591C8.12356 11.6874 9.81544 11.2112 10.7249 9.9189C11.6343 8.62659 11.5114 6.87329 10.4305 5.72053L10.9347 6.22053L10.3664 5.65386L10.3564 5.64386C9.73285 5.01651 8.88419 4.6648 7.99969 4.66718Z" fill="white"/>
</svg>
